{
  "ua":"",
  "homeUrl": "https://www.mp4er.cc",
  "cateManual": {
  "动作":"dongzuo",
  "爱情":"aiqing",
  "喜剧":"xiju",
  "科幻":"kehuan",
  "恐怖":"kongbu",
  "战争":"zhanzheng",
  "武侠":"wuxia",
  "国语":"guoyu",
  "原创":"yuanchuang",
  "美剧":"meiju",
  "韩剧":"hanju",
  "综艺":"zongyi", 
  "魔幻":"mohuan",
  "剧情":"juqing",
  "动画":"donghua",
  "惊悚":"jingsong",
  "3D":"3D",
  "灾难":"zainan",
  "悬疑":"xuanyi",
  "警匪":"jingfei",
  "文艺":"wenyi",
  "青春":"qingchun",
  "冒险":"maoxian",
  "犯罪":"fanzui",
  "纪录":"jilu",
  "古装":"guzhuang",
  "奇幻":"qihuan",
  "历史":"lishi",
  "运动":"yundong"
},
  "homeVodNode": "//div[contains(@class, 'pusher ui body')]//div[contains(@class,'ui seven')]/div/a",
  "homeVodName": "/@title",
  "homeVodId": "/@href",
  "homeVodIdR": "/(\\w+).html",
  "homeVodImg": "/img/@data-src",
  "homeVodImgR": "\\S+(http\\S+)",
  "homeVodMark": "/span[contains(@class,'ep')]/text()",

  "cateUrl": "https://www.mp4er.cc/s/{cateId}/?tepy/{catePg}.html",
  "cateVodNode": "//div[contains(@class,'ui container')]/div[contains(@class,'ui eight doubling')]/div/a",
  "cateVodName": "/@title",
  "cateVodId": "/@href",
  "cateVodIdR": "/(\\w+).html",
  "cateVodImg": "/img/@src",
  "cateVodImgR": "\\S+(http\\S+)",
  "cateVodMark": "/span[contains(@class,'ep')]/text()",

  "dtUrl": "https://www.mp4er.cc/{vid}.html",
  "dtNode": "//div[contains(@class,'ui container movie-info')]",

  "dtName": "/h2/text()",
  "dtNameR": "",
  "dtImg": "//div[@class='info0']/img/@src",
  "dtImgR": "\\S+(http\\S+)",

  "dtCate": "//div[@class='info0']/ul/li/a[contains(@target,'new')]/text()",
  "dtCateR": "",
  "dtArea": "//div[@class='info0']/ul/li/strong[contains(text(),'地区')]/parent::text()",
  "dtAreaR": "",
  "dtMark": "",
  "dtMarkR": "",
  "dtActor": "//div[@class='info0']/ul/li/a[contains(@href,'performer')]/following-sibling::*/text()",
  "dtActorR": "",
  "dtDirector": "//div[@class='info0']/ul/li/a[contains(@href,'director')]/text()",
  "dtDirectorR": "",
  "dtDesc": "",
  "dtDescR": "",
  "dtFromNode": "//div[@class='info1']/h4/div",
  "dtFromName": "/text()",
  "dtFromNameR": "",
  "dtUrlNode": "//div[@class='info1']",
  "dtUrlSubNode": "/a",
  "dtUrlId": "@href",
  "dtUrlIdR": "/display/(\\S+).html",
  "dtUrlName": "/text()",
  "dtUrlNameR": "",
  "playUrl": "https://www.mp4er.cc/display/{playUrl}.html",
  "playUa": "",
  "searchUrl": "https://www.mp4er.cc/index.php/ajax/suggest?mid=1&wd={wd}&limit=10",
  "scVodNode": "json:list",
  "scVodName": "name",
  "scVodId": "id",
  "scVodIdR": "",
  "scVodImg": "pic",
  "scVodMark": ""
}
