{
  "ua": "",
  "homeUrl": "https://www.nfuxs.com/",
  "dcVipFlag": "true",
  "pCfgJs": "https://www.nfuxs.com/static/js/playerconfig.js",
  "pCfgJsR": "[\\W|\\S|.]*?MacPlayerConfig.player_list[\\W|\\S|.]*?=([\\W|\\S|.]*?),MacPlayerConfig.downer_list",
  "dcShow2Vip": {},
  "dcPlayUrl": "true",
  "cateManual": {"电影": "1","连续剧": "2","动漫": "4","综艺": "3"},
  "homeVodNode": "//div[@class='module-item-pic']",
  "homeVodName": "/a/@title",
  "homeVodId": "/a/@href",
  "homeVodIdR": "/voddetail/(\\w+).html",
  "homeVodImg": "/img/@data-src",
  "homeVodImgR": "\\S+(http\\S+)",
  "cateUrl": "https://www.nfuxs.com/vodshow/{cateId}--------{catePg}---.html",
  "cateVodNode": "//div[@class='module-item-pic']",
  "cateVodName": "/a/@title",
  "cateVodId": "/a/@href",
  "cateVodIdR": "/voddetail/(\\w+).html",
  "cateVodImg": "/img/@data-src",
  "cateVodImgR": "\\S+(http\\S+)",
  "dtUrl": "https://www.nfuxs.com/voddetail/{vid}.html",
  "dtNode": "//body",
  "dtName": "//div[@class='video-info-header']/h1/text()",
  "dtNameR": "",
  "dtImg": "//div[@class='module-item-pic']/img/@data-src",
  "dtImgR": "",
  "dtCate": "//a[@class='tag-link']/@title",
  "dtYear": "//a[@class='tag-link'][2]/text()",
  "dtDirector": "//span[contains(text(), '导演')]/following-sibling::div/a/text()",
  "dtActor": "//span[contains(text(), '主演')]/following-sibling::div/a/text()",
  "dtDesc": "//span[contains(text(), '剧情')]/following-sibling::div/span/text()",
  "dtFromNode": "//div[@class='module-tab-content']/div/span",
  "dtFromName": "/text()",
  "dtFromNameR": "",
  "dtUrlNode": "//div[@class='module-blocklist']/div[@class='sort-item']",
  "dtUrlSubNode": "/a",
  "dtUrlId": "@href",
  "dtUrlIdR": "/vodplay/(\\S+).html",
  "dtUrlName": "/span/text()",
  "dtUrlNameR": "",
  "playUrl": "https://www.nfuxs.com/vodplay/{playUrl}.html",
  "playUa": "",
  "searchUrl": "https://www.nfuxs.com/index.php/ajax/suggest?mid=1&wd={wd}&limit=10",
  "scVodNode": "json:list",
  "scVodName": "name",
  "scVodId": "id",
  "scVodIdR": "",
  "scVodImg": "pic",
  "scVodMark": ""
}
