{ 
  "ua": "", 
  "homeUrl": "http://waipian2.com",
  "dcVipFlag": "true",
  "pCfgJs": "http://waipian2.com/static/js/playerconfig.js",
  "pCfgJsR": "[\\W|\\S|.]*?MacPlayerConfig.player_list[\\W|\\S|.]*?=([\\W|\\S|.]*?),MacPlayerConfig.downer_list", 
  "dcShow2Vip": {}, 
  "dcPlayUrl": "true", 
  "cateNode": "//ul[contains(@class,'stui-header__menu')]/li/a[contains(@href,'/')]", 
  "cateName": "/text()", 
  "cateId": "/@href",
  "cateIdR": "/(\\S+)/", 
  "cateManual": {"电影":"dianying", "剧集":"juji", "综艺":"zongyi", "动漫":"dongman", "纪录片":"jilupian"},
  "homeVodNode": "//div[contains(@class, 'stui-vodlist__box')]/a[contains(@class,'stui-vodlist__thumb')]", 
  "homeVodName": "/@title",
  "homeVodId": "/@href",
  "homeVodIdR": "/video/(\\w+)/",
  "homeVodImg": "/@data-original", 
  "homeVodMark": "/span[contains(@class,'pic-text')]/text()", 
  "cateUrl": "http://waipian2.com/show-{cateId}--------{catePg}---/",
  "cateVodNode": "//div[contains(@class,'stui-vodlist__box')]/a[contains(@class,'stui-vodlist__thumb')]", 
  "cateVodName": "/@title", 
  "cateVodId": "/@href", 
  "cateVodIdR": "/video/(\\w+)/", 
  "cateVodImg": "/@data-original", 
  "cateVodMark": "/span[contains(@class,'pic-text')]/text()", 
  "dtUrl": "http://waipian2.com/video/{vid}/", 
  "dtNode": "//div[contains(@class,'col-lg-wide-8')]", 
  "dtName": "//div[contains(@class,'stui-content__thumb')]/a[contains(@class,'stui-vodlist__thumb')]/@title", 
  "dtNameR": "", 
  "dtImg": "//div[contains(@class,'stui-content__thumb')]/a[contains(@class,'stui-vodlist__thumb')]/@data-original", 
  "dtImgR": "\\S+(http\\S+)", 
  "dtCate": "", 
  "dtCateR": "", 
  "dtArea": "//span[contains(@class,'text-muted') and contains(text(), '地区')]/following-sibling::a/text()", 
  "dtAreaR": "", 
  "dtDirector": "//span[contains(@class,'text-muted') and contains(text(), '导演')]/following-sibling::*/text()", 
  "dtDirectorR": "", 
  "dtActor": "//span[contains(@class,'text-muted') and contains(text(), '主演')]/following-sibling::*/text()", 
  "dtActorR": "", 
  "dtYear": "//span[contains(@class,'text-muted') and contains(text(), '年份')]/following-sibling::a/text()", 
  "dtYearR": "", 
  "dtMark": "//span[contains(@class,'text-muted') and contains(text(), '集数')]/following-sibling::*/text()", 
  "dtMarkR": "", 
  "dtDesc": "//span[contains(@class,'detail-sketch')]/text()", 
  "dtDescR": "", 
  "dtFromNode": "//a[@data-toggle='tab' and contains(@href,'playlist')]", 
  "dtFromName": "/text()", 
  "dtUrlNode": "//ul[contains(@class,'stui-content__playlist')]", 
  "dtUrlSubNode": "/li/a", 
  "dtUrlId": "@href", 
  "dtUrlIdR": "/play/(\\S+)/", 
  "dtUrlName": "/text()", 
  "dtUrlNameR": "", 
  "playUrl": "http://waipian2.com/play/{playUrl}/", 
  "playUa": "", 
  "searchUrl": "http://waipian2.com/index.php/ajax/suggest?mid=1&wd={wd}&limit=10", 
  "scVodNode": "json:list", 
  "scVodName": "name", 
  "scVodId": "id", 
  "scVodIdR": "", 
  "scVodImg": "pic", 
  "scVodMark": ""
 }
